{"failedCount":0,"prefixedPath":"src\/test\/java\/Karate\/KaratePractice\/Test1.feature","packageQualifiedName":"src.test.java.Karate.KaratePractice.Test1","loopIndex":-1,"relativePath":"src\/test\/java\/Karate\/KaratePractice\/Test1.feature","scenarioResults":[{"sectionIndex":0,"stepResults":[{"result":{"nanos":92655200,"millis":92.6552,"status":"passed"},"step":{"background":true,"line":23,"prefix":"*","index":0,"text":"url 'https:\/\/reqres.in\/api\/'"}},{"result":{"nanos":1021100,"millis":1.0211,"status":"passed"},"step":{"background":true,"line":24,"prefix":"*","index":1,"text":"header Accept = 'application\/json'"}},{"result":{"nanos":464900,"millis":0.4649,"status":"passed"},"step":{"line":27,"prefix":"Given","index":0,"text":"url 'https:\/\/reqres.in\/api\/users\/2'"}},{"result":{"nanos":1173644700,"millis":1173.6447,"status":"passed"},"step":{"line":28,"prefix":"When","index":1,"text":"method GET"},"stepLog":"10:52:41.902 request:\n1 > GET https:\/\/reqres.in\/api\/users\/2\n1 > Accept: application\/json\n1 > Host: reqres.in\n1 > Connection: Keep-Alive\n1 > User-Agent: Apache-HttpClient\/4.5.13 (Java\/1.8.0_311)\n1 > Accept-Encoding: gzip,deflate\n\n\n10:52:42.422 response time in milliseconds: 520\n1 < 200\n1 < Date: Wed, 23 Feb 2022 15:52:42 GMT\n1 < Content-Type: application\/json; charset=utf-8\n1 < Transfer-Encoding: chunked\n1 < Connection: keep-alive\n1 < X-Powered-By: Express\n1 < Access-Control-Allow-Origin: *\n1 < Etag: W\/\"118-pbdwwFo9SKNhD3Lx5iHJyngpq00\"\n1 < Via: 1.1 vegur\n1 < Cache-Control: max-age=14400\n1 < CF-Cache-Status: HIT\n1 < Age: 6478\n1 < Expect-CT: max-age=604800, report-uri=\"https:\/\/report-uri.cloudflare.com\/cdn-cgi\/beacon\/expect-ct\"\n1 < Report-To: {\"endpoints\":[{\"url\":\"https:\\\/\\\/a.nel.cloudflare.com\\\/report\\\/v3?s=MMA7MZXtt%2BhG9Rz2GV0wQFWsf5A%2B2LJ0%2FQ9h76HmxwtDmOLG%2F45mVAlgiVjQrA3McGaB1iQXJQnsPHtw7FjZEhy6HUqrDkTrhBs%2B%2BFkrVzXxf0v4pBvPtgYbB6M%3D\"}],\"group\":\"cf-nel\",\"max_age\":604800}\n1 < NEL: {\"success_fraction\":0,\"report_to\":\"cf-nel\",\"max_age\":604800}\n1 < Vary: Accept-Encoding\n1 < Server: cloudflare\n1 < CF-RAY: 6e219f73e8f18cae-EWR\n1 < alt-svc: h3=\":443\"; ma=86400, h3-29=\":443\"; ma=86400\n{\"data\":{\"id\":2,\"email\":\"janet.weaver@reqres.in\",\"first_name\":\"Janet\",\"last_name\":\"Weaver\",\"avatar\":\"https:\/\/reqres.in\/img\/faces\/2-image.jpg\"},\"support\":{\"url\":\"https:\/\/reqres.in\/#support-heading\",\"text\":\"To keep ReqRes free, contributions towards server costs are appreciated!\"}}\n\n"},{"result":{"nanos":14500,"millis":0.0145,"status":"passed"},"step":{"line":29,"prefix":"Then","index":2,"text":"status 200"}},{"result":{"nanos":68842000,"millis":68.842,"status":"passed"},"step":{"line":30,"prefix":"And","index":3,"text":"print response"},"stepLog":"10:52:42.522 [print] {\n  \"data\": {\n    \"id\": 2,\n    \"email\": \"janet.weaver@reqres.in\",\n    \"first_name\": \"Janet\",\n    \"last_name\": \"Weaver\",\n    \"avatar\": \"https:\/\/reqres.in\/img\/faces\/2-image.jpg\"\n  },\n  \"support\": {\n    \"url\": \"https:\/\/reqres.in\/#support-heading\",\n    \"text\": \"To keep ReqRes free, contributions towards server costs are appreciated!\"\n  }\n}\n \n"},{"result":{"nanos":1055000,"millis":1.055,"status":"passed"},"step":{"line":31,"prefix":"And","index":4,"text":"print responseStatus"},"stepLog":"10:52:42.522 [print] 200 \n"},{"result":{"nanos":1047000,"millis":1.047,"status":"passed"},"step":{"line":32,"prefix":"And","index":5,"text":"print responseHeaders"},"stepLog":"10:52:42.522 [print] {\n  \"Date\": [\n    \"Wed, 23 Feb 2022 15:52:42 GMT\"\n  ],\n  \"Content-Type\": [\n    \"application\/json; charset=utf-8\"\n  ],\n  \"Transfer-Encoding\": [\n    \"chunked\"\n  ],\n  \"Connection\": [\n    \"keep-alive\"\n  ],\n  \"X-Powered-By\": [\n    \"Express\"\n  ],\n  \"Access-Control-Allow-Origin\": [\n    \"*\"\n  ],\n  \"Etag\": [\n    \"W\/\\\"118-pbdwwFo9SKNhD3Lx5iHJyngpq00\\\"\"\n  ],\n  \"Via\": [\n    \"1.1 vegur\"\n  ],\n  \"Cache-Control\": [\n    \"max-age=14400\"\n  ],\n  \"CF-Cache-Status\": [\n    \"HIT\"\n  ],\n  \"Age\": [\n    \"6478\"\n  ],\n  \"Expect-CT\": [\n    \"max-age=604800, report-uri=\\\"https:\/\/report-uri.cloudflare.com\/cdn-cgi\/beacon\/expect-ct\\\"\"\n  ],\n  \"Report-To\": [\n    \"{\\\"endpoints\\\":[{\\\"url\\\":\\\"https:\\\\\/\\\\\/a.nel.cloudflare.com\\\\\/report\\\\\/v3?s=MMA7MZXtt%2BhG9Rz2GV0wQFWsf5A%2B2LJ0%2FQ9h76HmxwtDmOLG%2F45mVAlgiVjQrA3McGaB1iQXJQnsPHtw7FjZEhy6HUqrDkTrhBs%2B%2BFkrVzXxf0v4pBvPtgYbB6M%3D\\\"}],\\\"group\\\":\\\"cf-nel\\\",\\\"max_age\\\":604800}\"\n  ],\n  \"NEL\": [\n    \"{\\\"success_fraction\\\":0,\\\"report_to\\\":\\\"cf-nel\\\",\\\"max_age\\\":604800}\"\n  ],\n  \"Vary\": [\n    \"Accept-Encoding\"\n  ],\n  \"Server\": [\n    \"cloudflare\"\n  ],\n  \"CF-RAY\": [\n    \"6e219f73e8f18cae-EWR\"\n  ],\n  \"alt-svc\": [\n    \"h3=\\\":443\\\"; ma=86400, h3-29=\\\":443\\\"; ma=86400\"\n  ]\n}\n \n"},{"result":{"nanos":1229100,"millis":1.2291,"status":"passed"},"step":{"line":33,"prefix":"And","index":6,"text":"print responseCookies"},"stepLog":"10:52:42.522 [print] null \n"}],"executorName":"main","line":26,"name":"Get single User with url","description":"","durationMillis":1339.9735,"startTime":1645631561165,"failed":false,"refId":"[1:26]","endTime":1645631562522,"exampleIndex":-1},{"sectionIndex":1,"stepResults":[{"result":{"nanos":233700,"millis":0.2337,"status":"passed"},"step":{"background":true,"line":23,"prefix":"*","index":0,"text":"url 'https:\/\/reqres.in\/api\/'"}},{"result":{"nanos":103300,"millis":0.1033,"status":"passed"},"step":{"background":true,"line":24,"prefix":"*","index":1,"text":"header Accept = 'application\/json'"}},{"result":{"nanos":331200,"millis":0.3312,"status":"passed"},"step":{"line":36,"prefix":"Given","index":0,"text":"path 'users?page=2'"}},{"result":{"nanos":231019400,"millis":231.0194,"status":"passed"},"step":{"line":37,"prefix":"When","index":1,"text":"method GET"},"stepLog":"10:52:42.538 request:\n1 > GET https:\/\/reqres.in\/api\/users%3Fpage=2\n1 > Accept: application\/json\n1 > Host: reqres.in\n1 > Connection: Keep-Alive\n1 > User-Agent: Apache-HttpClient\/4.5.13 (Java\/1.8.0_311)\n1 > Accept-Encoding: gzip,deflate\n\n\n10:52:42.761 response time in milliseconds: 223\n1 < 200\n1 < Date: Wed, 23 Feb 2022 15:52:43 GMT\n1 < Content-Type: application\/json; charset=utf-8\n1 < Transfer-Encoding: chunked\n1 < Connection: keep-alive\n1 < X-Powered-By: Express\n1 < Access-Control-Allow-Origin: *\n1 < Etag: W\/\"2c1-N6Rqerxquq2kgQhL51EiSg4x0R8\"\n1 < Via: 1.1 vegur\n1 < Cache-Control: max-age=14400\n1 < CF-Cache-Status: HIT\n1 < Age: 1742\n1 < Expect-CT: max-age=604800, report-uri=\"https:\/\/report-uri.cloudflare.com\/cdn-cgi\/beacon\/expect-ct\"\n1 < Report-To: {\"endpoints\":[{\"url\":\"https:\\\/\\\/a.nel.cloudflare.com\\\/report\\\/v3?s=PcLjBjzbmRSt%2Fc9LF6NWNtpeTTRbAdjMOofm5lCn40ziz5096OLW6cXAfXkrkxsMU0RkjuSMArIP7fv8uvnb3r0V7Yb%2FN63X0wAPKafL06RMuGvYVFYkyuj6G9Q%3D\"}],\"group\":\"cf-nel\",\"max_age\":604800}\n1 < NEL: {\"success_fraction\":0,\"report_to\":\"cf-nel\",\"max_age\":604800}\n1 < Vary: Accept-Encoding\n1 < Server: cloudflare\n1 < CF-RAY: 6e219f7708801871-EWR\n1 < alt-svc: h3=\":443\"; ma=86400, h3-29=\":443\"; ma=86400\n{\"page\":1,\"per_page\":6,\"total\":12,\"total_pages\":2,\"data\":[{\"id\":1,\"name\":\"cerulean\",\"year\":2000,\"color\":\"#98B2D1\",\"pantone_value\":\"15-4020\"},{\"id\":2,\"name\":\"fuchsia rose\",\"year\":2001,\"color\":\"#C74375\",\"pantone_value\":\"17-2031\"},{\"id\":3,\"name\":\"true red\",\"year\":2002,\"color\":\"#BF1932\",\"pantone_value\":\"19-1664\"},{\"id\":4,\"name\":\"aqua sky\",\"year\":2003,\"color\":\"#7BC4C4\",\"pantone_value\":\"14-4811\"},{\"id\":5,\"name\":\"tigerlily\",\"year\":2004,\"color\":\"#E2583E\",\"pantone_value\":\"17-1456\"},{\"id\":6,\"name\":\"blue turquoise\",\"year\":2005,\"color\":\"#53B0AE\",\"pantone_value\":\"15-5217\"}],\"support\":{\"url\":\"https:\/\/reqres.in\/#support-heading\",\"text\":\"To keep ReqRes free, contributions towards server costs are appreciated!\"}}\n\n"},{"result":{"nanos":13700,"millis":0.0137,"status":"passed"},"step":{"line":38,"prefix":"Then","index":2,"text":"status 200"}}],"executorName":"main","line":35,"name":"Get single User with path","description":"","durationMillis":231.7013,"startTime":1645631562538,"failed":false,"refId":"[2:35]","endTime":1645631562761,"exampleIndex":-1},{"sectionIndex":2,"stepResults":[{"result":{"nanos":388500,"millis":0.3885,"status":"passed"},"step":{"background":true,"line":23,"prefix":"*","index":0,"text":"url 'https:\/\/reqres.in\/api\/'"}},{"result":{"nanos":295700,"millis":0.2957,"status":"passed"},"step":{"background":true,"line":24,"prefix":"*","index":1,"text":"header Accept = 'application\/json'"}},{"result":{"nanos":581100,"millis":0.5811,"status":"passed"},"step":{"line":41,"prefix":"Given","index":0,"text":"path '\/users'"}},{"result":{"nanos":3155700,"millis":3.1557,"status":"passed"},"step":{"line":42,"prefix":"And","index":1,"text":"param page = 2"}},{"result":{"nanos":234122000,"millis":234.122,"status":"passed"},"step":{"line":43,"prefix":"When","index":2,"text":"method GET"},"stepLog":"10:52:42.776 request:\n1 > GET https:\/\/reqres.in\/api\/users?page=2\n1 > Accept: application\/json\n1 > Host: reqres.in\n1 > Connection: Keep-Alive\n1 > User-Agent: Apache-HttpClient\/4.5.13 (Java\/1.8.0_311)\n1 > Accept-Encoding: gzip,deflate\n\n\n10:52:43.008 response time in milliseconds: 232\n1 < 200\n1 < Date: Wed, 23 Feb 2022 15:52:43 GMT\n1 < Content-Type: application\/json; charset=utf-8\n1 < Transfer-Encoding: chunked\n1 < Connection: keep-alive\n1 < X-Powered-By: Express\n1 < Access-Control-Allow-Origin: *\n1 < Etag: W\/\"406-ut0vzoCuidvyMf8arZpMpJ6ZRDw\"\n1 < Via: 1.1 vegur\n1 < Cache-Control: max-age=14400\n1 < CF-Cache-Status: HIT\n1 < Age: 7024\n1 < Expect-CT: max-age=604800, report-uri=\"https:\/\/report-uri.cloudflare.com\/cdn-cgi\/beacon\/expect-ct\"\n1 < Report-To: {\"endpoints\":[{\"url\":\"https:\\\/\\\/a.nel.cloudflare.com\\\/report\\\/v3?s=D13OedQuShNUX4Ll78wp0%2FELr6K1FFf6vIU59sbm5Kh1NGLbwKrzSh4ItaqxeDmd5JLogrBGX6HmuXTaEgEQ8IHnnai4HHInerPrPgoDIqZl61IZjYyj3v89xQE%3D\"}],\"group\":\"cf-nel\",\"max_age\":604800}\n1 < NEL: {\"success_fraction\":0,\"report_to\":\"cf-nel\",\"max_age\":604800}\n1 < Vary: Accept-Encoding\n1 < Server: cloudflare\n1 < CF-RAY: 6e219f7888b4177c-EWR\n1 < alt-svc: h3=\":443\"; ma=86400, h3-29=\":443\"; ma=86400\n{\"page\":2,\"per_page\":6,\"total\":12,\"total_pages\":2,\"data\":[{\"id\":7,\"email\":\"michael.lawson@reqres.in\",\"first_name\":\"Michael\",\"last_name\":\"Lawson\",\"avatar\":\"https:\/\/reqres.in\/img\/faces\/7-image.jpg\"},{\"id\":8,\"email\":\"lindsay.ferguson@reqres.in\",\"first_name\":\"Lindsay\",\"last_name\":\"Ferguson\",\"avatar\":\"https:\/\/reqres.in\/img\/faces\/8-image.jpg\"},{\"id\":9,\"email\":\"tobias.funke@reqres.in\",\"first_name\":\"Tobias\",\"last_name\":\"Funke\",\"avatar\":\"https:\/\/reqres.in\/img\/faces\/9-image.jpg\"},{\"id\":10,\"email\":\"byron.fields@reqres.in\",\"first_name\":\"Byron\",\"last_name\":\"Fields\",\"avatar\":\"https:\/\/reqres.in\/img\/faces\/10-image.jpg\"},{\"id\":11,\"email\":\"george.edwards@reqres.in\",\"first_name\":\"George\",\"last_name\":\"Edwards\",\"avatar\":\"https:\/\/reqres.in\/img\/faces\/11-image.jpg\"},{\"id\":12,\"email\":\"rachel.howell@reqres.in\",\"first_name\":\"Rachel\",\"last_name\":\"Howell\",\"avatar\":\"https:\/\/reqres.in\/img\/faces\/12-image.jpg\"}],\"support\":{\"url\":\"https:\/\/reqres.in\/#support-heading\",\"text\":\"To keep ReqRes free, contributions towards server costs are appreciated!\"}}\n\n"},{"result":{"nanos":25400,"millis":0.0254,"status":"passed"},"step":{"line":44,"prefix":"Then","index":3,"text":"status 200"}}],"executorName":"main","line":40,"name":"Get single User with path","description":"","durationMillis":238.5684,"startTime":1645631562776,"failed":false,"refId":"[3:40]","endTime":1645631563008,"exampleIndex":-1},{"sectionIndex":3,"stepResults":[{"result":{"nanos":858400,"millis":0.8584,"status":"passed"},"step":{"background":true,"line":23,"prefix":"*","index":0,"text":"url 'https:\/\/reqres.in\/api\/'"}},{"result":{"nanos":769700,"millis":0.7697,"status":"passed"},"step":{"background":true,"line":24,"prefix":"*","index":1,"text":"header Accept = 'application\/json'"}},{"result":{"nanos":438800,"millis":0.4388,"status":"passed"},"step":{"line":47,"prefix":"Given","index":0,"text":"path '\/users'"}},{"result":{"nanos":607000,"millis":0.607,"status":"passed"},"step":{"line":48,"prefix":"And","index":1,"text":"param page = 2"}},{"result":{"nanos":254855700,"millis":254.8557,"status":"passed"},"step":{"line":49,"prefix":"When","index":2,"text":"method GET"},"stepLog":"10:52:43.040 request:\n1 > GET https:\/\/reqres.in\/api\/users?page=2\n1 > Accept: application\/json\n1 > Host: reqres.in\n1 > Connection: Keep-Alive\n1 > User-Agent: Apache-HttpClient\/4.5.13 (Java\/1.8.0_311)\n1 > Accept-Encoding: gzip,deflate\n\n\n10:52:43.278 response time in milliseconds: 238\n1 < 200\n1 < Date: Wed, 23 Feb 2022 15:52:43 GMT\n1 < Content-Type: application\/json; charset=utf-8\n1 < Transfer-Encoding: chunked\n1 < Connection: keep-alive\n1 < X-Powered-By: Express\n1 < Access-Control-Allow-Origin: *\n1 < Etag: W\/\"406-ut0vzoCuidvyMf8arZpMpJ6ZRDw\"\n1 < Via: 1.1 vegur\n1 < Cache-Control: max-age=14400\n1 < CF-Cache-Status: HIT\n1 < Age: 374\n1 < Expect-CT: max-age=604800, report-uri=\"https:\/\/report-uri.cloudflare.com\/cdn-cgi\/beacon\/expect-ct\"\n1 < Report-To: {\"endpoints\":[{\"url\":\"https:\\\/\\\/a.nel.cloudflare.com\\\/report\\\/v3?s=oQkZXsEQqVv0pILE8xfJPOn0gzQKzgqwwE%2FGgBWbQW4vEtfrdGT2NfaFDRbBWG57eexh0vXlRRMMJV5YHaK28LsMPcKeM9Sa9J0lqoBQA8Gju0VlMytUchhXx5E%3D\"}],\"group\":\"cf-nel\",\"max_age\":604800}\n1 < NEL: {\"success_fraction\":0,\"report_to\":\"cf-nel\",\"max_age\":604800}\n1 < Vary: Accept-Encoding\n1 < Server: cloudflare\n1 < CF-RAY: 6e219f7a498a78ed-EWR\n1 < alt-svc: h3=\":443\"; ma=86400, h3-29=\":443\"; ma=86400\n{\"page\":2,\"per_page\":6,\"total\":12,\"total_pages\":2,\"data\":[{\"id\":7,\"email\":\"michael.lawson@reqres.in\",\"first_name\":\"Michael\",\"last_name\":\"Lawson\",\"avatar\":\"https:\/\/reqres.in\/img\/faces\/7-image.jpg\"},{\"id\":8,\"email\":\"lindsay.ferguson@reqres.in\",\"first_name\":\"Lindsay\",\"last_name\":\"Ferguson\",\"avatar\":\"https:\/\/reqres.in\/img\/faces\/8-image.jpg\"},{\"id\":9,\"email\":\"tobias.funke@reqres.in\",\"first_name\":\"Tobias\",\"last_name\":\"Funke\",\"avatar\":\"https:\/\/reqres.in\/img\/faces\/9-image.jpg\"},{\"id\":10,\"email\":\"byron.fields@reqres.in\",\"first_name\":\"Byron\",\"last_name\":\"Fields\",\"avatar\":\"https:\/\/reqres.in\/img\/faces\/10-image.jpg\"},{\"id\":11,\"email\":\"george.edwards@reqres.in\",\"first_name\":\"George\",\"last_name\":\"Edwards\",\"avatar\":\"https:\/\/reqres.in\/img\/faces\/11-image.jpg\"},{\"id\":12,\"email\":\"rachel.howell@reqres.in\",\"first_name\":\"Rachel\",\"last_name\":\"Howell\",\"avatar\":\"https:\/\/reqres.in\/img\/faces\/12-image.jpg\"}],\"support\":{\"url\":\"https:\/\/reqres.in\/#support-heading\",\"text\":\"To keep ReqRes free, contributions towards server costs are appreciated!\"}}\n\n"},{"result":{"nanos":12800,"millis":0.0128,"status":"passed"},"step":{"line":50,"prefix":"Then","index":3,"text":"status 200"}},{"result":{"nanos":78755500,"millis":78.7555,"status":"passed"},"step":{"line":51,"prefix":"And","index":4,"text":"response.data[1].first_name=='Lindsay'"}},{"result":{"nanos":681400,"millis":0.6814,"status":"passed"},"step":{"line":52,"prefix":"And","index":5,"text":"assert response.data[1].id==8"}}],"executorName":"main","line":46,"name":"Get list of users","description":"","durationMillis":336.9793,"startTime":1645631563024,"failed":false,"refId":"[4:46]","endTime":1645631563362,"exampleIndex":-1}],"callDepth":0,"name":"First Karate Test","description":"","resultDate":"2022-02-23 10:52:43 AM","durationMillis":2147.2225,"passedCount":4}