{"failedCount":0,"prefixedPath":"classpath:Karate\/KaratePractice\/Test1.feature","packageQualifiedName":"Karate.KaratePractice.Test1","loopIndex":-1,"relativePath":"Karate\/KaratePractice\/Test1.feature","scenarioResults":[{"sectionIndex":0,"stepResults":[{"result":{"nanos":550400,"millis":0.5504,"status":"passed"},"step":{"background":true,"line":23,"prefix":"*","index":0,"text":"url 'https:\/\/reqres.in\/api\/'"}},{"result":{"nanos":366400,"millis":0.3664,"status":"passed"},"step":{"background":true,"line":24,"prefix":"*","index":1,"text":"header Accept = 'application\/json'"}},{"result":{"nanos":318400,"millis":0.3184,"status":"passed"},"step":{"line":27,"prefix":"Given","index":0,"text":"url 'https:\/\/reqres.in\/api\/users\/2'"}},{"result":{"nanos":180873600,"millis":180.8736,"status":"passed"},"step":{"line":28,"prefix":"When","index":1,"text":"method GET"},"stepLog":"14:08:33.998 request:\n1 > GET https:\/\/reqres.in\/api\/users\/2\n1 > Accept: application\/json\n1 > Host: reqres.in\n1 > Connection: Keep-Alive\n1 > User-Agent: Apache-HttpClient\/4.5.13 (Java\/1.8.0_311)\n1 > Accept-Encoding: gzip,deflate\n\n\n14:08:34.175 response time in milliseconds: 176\n1 < 200\n1 < Date: Fri, 08 Apr 2022 18:08:33 GMT\n1 < Content-Type: application\/json; charset=utf-8\n1 < Transfer-Encoding: chunked\n1 < Connection: keep-alive\n1 < X-Powered-By: Express\n1 < Access-Control-Allow-Origin: *\n1 < Etag: W\/\"118-pbdwwFo9SKNhD3Lx5iHJyngpq00\"\n1 < Via: 1.1 vegur\n1 < Cache-Control: max-age=14400\n1 < CF-Cache-Status: HIT\n1 < Age: 6563\n1 < Expect-CT: max-age=604800, report-uri=\"https:\/\/report-uri.cloudflare.com\/cdn-cgi\/beacon\/expect-ct\"\n1 < Report-To: {\"endpoints\":[{\"url\":\"https:\\\/\\\/a.nel.cloudflare.com\\\/report\\\/v3?s=aLj%2FcGtfXjPmwJfZJvQw1Hm1YGHuQexXAnZxZLCxi8INT14L0fgmH3RKKgBjemPsoLZePtDrNgJ9IzrzIrDZ3D8godQW9GR6vFqDtt%2BfXg4kDZoFk6KXjiBy%2FcQ%3D\"}],\"group\":\"cf-nel\",\"max_age\":604800}\n1 < NEL: {\"success_fraction\":0,\"report_to\":\"cf-nel\",\"max_age\":604800}\n1 < Vary: Accept-Encoding\n1 < Server: cloudflare\n1 < CF-RAY: 6f8cf2f15e348c24-EWR\n1 < alt-svc: h3=\":443\"; ma=86400, h3-29=\":443\"; ma=86400\n{\"data\":{\"id\":2,\"email\":\"janet.weaver@reqres.in\",\"first_name\":\"Janet\",\"last_name\":\"Weaver\",\"avatar\":\"https:\/\/reqres.in\/img\/faces\/2-image.jpg\"},\"support\":{\"url\":\"https:\/\/reqres.in\/#support-heading\",\"text\":\"To keep ReqRes free, contributions towards server costs are appreciated!\"}}\n\n"},{"result":{"nanos":14700,"millis":0.0147,"status":"passed"},"step":{"line":29,"prefix":"Then","index":2,"text":"status 200"}},{"result":{"nanos":2239100,"millis":2.2391,"status":"passed"},"step":{"line":30,"prefix":"And","index":3,"text":"print response"},"stepLog":"14:08:34.179 [print] {\n  \"data\": {\n    \"id\": 2,\n    \"email\": \"janet.weaver@reqres.in\",\n    \"first_name\": \"Janet\",\n    \"last_name\": \"Weaver\",\n    \"avatar\": \"https:\/\/reqres.in\/img\/faces\/2-image.jpg\"\n  },\n  \"support\": {\n    \"url\": \"https:\/\/reqres.in\/#support-heading\",\n    \"text\": \"To keep ReqRes free, contributions towards server costs are appreciated!\"\n  }\n}\n \n"},{"result":{"nanos":1249600,"millis":1.2496,"status":"passed"},"step":{"line":31,"prefix":"And","index":4,"text":"print responseStatus"},"stepLog":"14:08:34.181 [print] 200 \n"},{"result":{"nanos":1943900,"millis":1.9439,"status":"passed"},"step":{"line":32,"prefix":"And","index":5,"text":"print responseHeaders"},"stepLog":"14:08:34.183 [print] {\n  \"Date\": [\n    \"Fri, 08 Apr 2022 18:08:33 GMT\"\n  ],\n  \"Content-Type\": [\n    \"application\/json; charset=utf-8\"\n  ],\n  \"Transfer-Encoding\": [\n    \"chunked\"\n  ],\n  \"Connection\": [\n    \"keep-alive\"\n  ],\n  \"X-Powered-By\": [\n    \"Express\"\n  ],\n  \"Access-Control-Allow-Origin\": [\n    \"*\"\n  ],\n  \"Etag\": [\n    \"W\/\\\"118-pbdwwFo9SKNhD3Lx5iHJyngpq00\\\"\"\n  ],\n  \"Via\": [\n    \"1.1 vegur\"\n  ],\n  \"Cache-Control\": [\n    \"max-age=14400\"\n  ],\n  \"CF-Cache-Status\": [\n    \"HIT\"\n  ],\n  \"Age\": [\n    \"6563\"\n  ],\n  \"Expect-CT\": [\n    \"max-age=604800, report-uri=\\\"https:\/\/report-uri.cloudflare.com\/cdn-cgi\/beacon\/expect-ct\\\"\"\n  ],\n  \"Report-To\": [\n    \"{\\\"endpoints\\\":[{\\\"url\\\":\\\"https:\\\\\/\\\\\/a.nel.cloudflare.com\\\\\/report\\\\\/v3?s=aLj%2FcGtfXjPmwJfZJvQw1Hm1YGHuQexXAnZxZLCxi8INT14L0fgmH3RKKgBjemPsoLZePtDrNgJ9IzrzIrDZ3D8godQW9GR6vFqDtt%2BfXg4kDZoFk6KXjiBy%2FcQ%3D\\\"}],\\\"group\\\":\\\"cf-nel\\\",\\\"max_age\\\":604800}\"\n  ],\n  \"NEL\": [\n    \"{\\\"success_fraction\\\":0,\\\"report_to\\\":\\\"cf-nel\\\",\\\"max_age\\\":604800}\"\n  ],\n  \"Vary\": [\n    \"Accept-Encoding\"\n  ],\n  \"Server\": [\n    \"cloudflare\"\n  ],\n  \"CF-RAY\": [\n    \"6f8cf2f15e348c24-EWR\"\n  ],\n  \"alt-svc\": [\n    \"h3=\\\":443\\\"; ma=86400, h3-29=\\\":443\\\"; ma=86400\"\n  ]\n}\n \n"},{"result":{"nanos":1315600,"millis":1.3156,"status":"passed"},"step":{"line":33,"prefix":"And","index":6,"text":"print responseCookies"},"stepLog":"14:08:34.184 [print] null \n"}],"executorName":"main","line":26,"name":"Get single User with url","description":"","durationMillis":188.8717,"startTime":1649441313995,"failed":false,"refId":"[1:26]","endTime":1649441314185,"exampleIndex":-1},{"sectionIndex":1,"stepResults":[{"result":{"nanos":248700,"millis":0.2487,"status":"passed"},"step":{"background":true,"line":23,"prefix":"*","index":0,"text":"url 'https:\/\/reqres.in\/api\/'"}},{"result":{"nanos":185200,"millis":0.1852,"status":"passed"},"step":{"background":true,"line":24,"prefix":"*","index":1,"text":"header Accept = 'application\/json'"}},{"result":{"nanos":562900,"millis":0.5629,"status":"passed"},"step":{"line":36,"prefix":"Given","index":0,"text":"path 'users?page=2'"}},{"result":{"nanos":149539200,"millis":149.5392,"status":"passed"},"step":{"line":37,"prefix":"When","index":1,"text":"method GET"},"stepLog":"14:08:34.195 request:\n1 > GET https:\/\/reqres.in\/api\/users%3Fpage=2\n1 > Accept: application\/json\n1 > Host: reqres.in\n1 > Connection: Keep-Alive\n1 > User-Agent: Apache-HttpClient\/4.5.13 (Java\/1.8.0_311)\n1 > Accept-Encoding: gzip,deflate\n\n\n14:08:34.340 response time in milliseconds: 144\n1 < 200\n1 < Date: Fri, 08 Apr 2022 18:08:33 GMT\n1 < Content-Type: application\/json; charset=utf-8\n1 < Transfer-Encoding: chunked\n1 < Connection: keep-alive\n1 < X-Powered-By: Express\n1 < Access-Control-Allow-Origin: *\n1 < Etag: W\/\"2c1-N6Rqerxquq2kgQhL51EiSg4x0R8\"\n1 < Via: 1.1 vegur\n1 < Cache-Control: max-age=14400\n1 < CF-Cache-Status: HIT\n1 < Age: 38\n1 < Expect-CT: max-age=604800, report-uri=\"https:\/\/report-uri.cloudflare.com\/cdn-cgi\/beacon\/expect-ct\"\n1 < Report-To: {\"endpoints\":[{\"url\":\"https:\\\/\\\/a.nel.cloudflare.com\\\/report\\\/v3?s=RwNQbHnMyJSaypvqjZ%2FiTfE%2BG4hFscBaPbYB4lOjuL%2F1olkh4HbNfK8F0Zib6QPG8gnt8fFHn0fF21RWTPLlAutXO%2FJ3aGFdTsbm5Ot72cWALaR%2B0WSazxUvE2k%3D\"}],\"group\":\"cf-nel\",\"max_age\":604800}\n1 < NEL: {\"success_fraction\":0,\"report_to\":\"cf-nel\",\"max_age\":604800}\n1 < Vary: Accept-Encoding\n1 < Server: cloudflare\n1 < CF-RAY: 6f8cf2f27ac01829-EWR\n1 < alt-svc: h3=\":443\"; ma=86400, h3-29=\":443\"; ma=86400\n{\"page\":1,\"per_page\":6,\"total\":12,\"total_pages\":2,\"data\":[{\"id\":1,\"name\":\"cerulean\",\"year\":2000,\"color\":\"#98B2D1\",\"pantone_value\":\"15-4020\"},{\"id\":2,\"name\":\"fuchsia rose\",\"year\":2001,\"color\":\"#C74375\",\"pantone_value\":\"17-2031\"},{\"id\":3,\"name\":\"true red\",\"year\":2002,\"color\":\"#BF1932\",\"pantone_value\":\"19-1664\"},{\"id\":4,\"name\":\"aqua sky\",\"year\":2003,\"color\":\"#7BC4C4\",\"pantone_value\":\"14-4811\"},{\"id\":5,\"name\":\"tigerlily\",\"year\":2004,\"color\":\"#E2583E\",\"pantone_value\":\"17-1456\"},{\"id\":6,\"name\":\"blue turquoise\",\"year\":2005,\"color\":\"#53B0AE\",\"pantone_value\":\"15-5217\"}],\"support\":{\"url\":\"https:\/\/reqres.in\/#support-heading\",\"text\":\"To keep ReqRes free, contributions towards server costs are appreciated!\"}}\n\n"},{"result":{"nanos":13200,"millis":0.0132,"status":"passed"},"step":{"line":38,"prefix":"Then","index":2,"text":"status 200"}}],"executorName":"main","line":35,"name":"Get single User with path","description":"","durationMillis":150.5492,"startTime":1649441314192,"failed":false,"refId":"[2:35]","endTime":1649441314342,"exampleIndex":-1},{"sectionIndex":2,"stepResults":[{"result":{"nanos":333500,"millis":0.3335,"status":"passed"},"step":{"background":true,"line":23,"prefix":"*","index":0,"text":"url 'https:\/\/reqres.in\/api\/'"}},{"result":{"nanos":233100,"millis":0.2331,"status":"passed"},"step":{"background":true,"line":24,"prefix":"*","index":1,"text":"header Accept = 'application\/json'"}},{"result":{"nanos":482400,"millis":0.4824,"status":"passed"},"step":{"line":41,"prefix":"Given","index":0,"text":"path '\/users'"}},{"result":{"nanos":1961500,"millis":1.9615,"status":"passed"},"step":{"line":42,"prefix":"And","index":1,"text":"param page = 2"}},{"result":{"nanos":140596300,"millis":140.5963,"status":"passed"},"step":{"line":43,"prefix":"When","index":2,"text":"method GET"},"stepLog":"14:08:34.357 request:\n1 > GET https:\/\/reqres.in\/api\/users?page=2\n1 > Accept: application\/json\n1 > Host: reqres.in\n1 > Connection: Keep-Alive\n1 > User-Agent: Apache-HttpClient\/4.5.13 (Java\/1.8.0_311)\n1 > Accept-Encoding: gzip,deflate\n\n\n14:08:34.491 response time in milliseconds: 134\n1 < 200\n1 < Date: Fri, 08 Apr 2022 18:08:33 GMT\n1 < Content-Type: application\/json; charset=utf-8\n1 < Transfer-Encoding: chunked\n1 < Connection: keep-alive\n1 < X-Powered-By: Express\n1 < Access-Control-Allow-Origin: *\n1 < Etag: W\/\"406-ut0vzoCuidvyMf8arZpMpJ6ZRDw\"\n1 < Via: 1.1 vegur\n1 < Cache-Control: max-age=14400\n1 < CF-Cache-Status: HIT\n1 < Age: 4516\n1 < Expect-CT: max-age=604800, report-uri=\"https:\/\/report-uri.cloudflare.com\/cdn-cgi\/beacon\/expect-ct\"\n1 < Report-To: {\"endpoints\":[{\"url\":\"https:\\\/\\\/a.nel.cloudflare.com\\\/report\\\/v3?s=Z9Qg%2FPcbXU2b9FSVYU8VFKH4hstmvlO%2Fsd8GnM9FmCRrEe%2Bf8yl%2BMDBHI194lhsdiqvr%2BzBgz1k0zyI%2FpBuv4oFSH9%2BIWQZ1uPBE%2F5Qs9nvxMdfJtKcOo%2Besl4w%3D\"}],\"group\":\"cf-nel\",\"max_age\":604800}\n1 < NEL: {\"success_fraction\":0,\"report_to\":\"cf-nel\",\"max_age\":604800}\n1 < Vary: Accept-Encoding\n1 < Server: cloudflare\n1 < CF-RAY: 6f8cf2f36e5c8c7e-EWR\n1 < alt-svc: h3=\":443\"; ma=86400, h3-29=\":443\"; ma=86400\n{\"page\":2,\"per_page\":6,\"total\":12,\"total_pages\":2,\"data\":[{\"id\":7,\"email\":\"michael.lawson@reqres.in\",\"first_name\":\"Michael\",\"last_name\":\"Lawson\",\"avatar\":\"https:\/\/reqres.in\/img\/faces\/7-image.jpg\"},{\"id\":8,\"email\":\"lindsay.ferguson@reqres.in\",\"first_name\":\"Lindsay\",\"last_name\":\"Ferguson\",\"avatar\":\"https:\/\/reqres.in\/img\/faces\/8-image.jpg\"},{\"id\":9,\"email\":\"tobias.funke@reqres.in\",\"first_name\":\"Tobias\",\"last_name\":\"Funke\",\"avatar\":\"https:\/\/reqres.in\/img\/faces\/9-image.jpg\"},{\"id\":10,\"email\":\"byron.fields@reqres.in\",\"first_name\":\"Byron\",\"last_name\":\"Fields\",\"avatar\":\"https:\/\/reqres.in\/img\/faces\/10-image.jpg\"},{\"id\":11,\"email\":\"george.edwards@reqres.in\",\"first_name\":\"George\",\"last_name\":\"Edwards\",\"avatar\":\"https:\/\/reqres.in\/img\/faces\/11-image.jpg\"},{\"id\":12,\"email\":\"rachel.howell@reqres.in\",\"first_name\":\"Rachel\",\"last_name\":\"Howell\",\"avatar\":\"https:\/\/reqres.in\/img\/faces\/12-image.jpg\"}],\"support\":{\"url\":\"https:\/\/reqres.in\/#support-heading\",\"text\":\"To keep ReqRes free, contributions towards server costs are appreciated!\"}}\n\n"},{"result":{"nanos":19700,"millis":0.0197,"status":"passed"},"step":{"line":44,"prefix":"Then","index":3,"text":"status 200"}}],"executorName":"main","line":40,"name":"Get single User with path","description":"","durationMillis":143.6265,"startTime":1649441314349,"failed":false,"refId":"[3:40]","endTime":1649441314494,"exampleIndex":-1},{"sectionIndex":3,"stepResults":[{"result":{"nanos":567100,"millis":0.5671,"status":"passed"},"step":{"background":true,"line":23,"prefix":"*","index":0,"text":"url 'https:\/\/reqres.in\/api\/'"}},{"result":{"nanos":497400,"millis":0.4974,"status":"passed"},"step":{"background":true,"line":24,"prefix":"*","index":1,"text":"header Accept = 'application\/json'"}},{"result":{"nanos":244900,"millis":0.2449,"status":"passed"},"step":{"line":47,"prefix":"Given","index":0,"text":"path '\/users'"}},{"result":{"nanos":328400,"millis":0.3284,"status":"passed"},"step":{"line":48,"prefix":"And","index":1,"text":"param page = 2"}},{"result":{"nanos":139852200,"millis":139.8522,"status":"passed"},"step":{"line":49,"prefix":"When","index":2,"text":"method GET"},"stepLog":"14:08:34.509 request:\n1 > GET https:\/\/reqres.in\/api\/users?page=2\n1 > Accept: application\/json\n1 > Host: reqres.in\n1 > Connection: Keep-Alive\n1 > User-Agent: Apache-HttpClient\/4.5.13 (Java\/1.8.0_311)\n1 > Accept-Encoding: gzip,deflate\n\n\n14:08:34.646 response time in milliseconds: 136\n1 < 200\n1 < Date: Fri, 08 Apr 2022 18:08:33 GMT\n1 < Content-Type: application\/json; charset=utf-8\n1 < Transfer-Encoding: chunked\n1 < Connection: keep-alive\n1 < X-Powered-By: Express\n1 < Access-Control-Allow-Origin: *\n1 < Etag: W\/\"406-ut0vzoCuidvyMf8arZpMpJ6ZRDw\"\n1 < Via: 1.1 vegur\n1 < Cache-Control: max-age=14400\n1 < CF-Cache-Status: HIT\n1 < Age: 2852\n1 < Expect-CT: max-age=604800, report-uri=\"https:\/\/report-uri.cloudflare.com\/cdn-cgi\/beacon\/expect-ct\"\n1 < Report-To: {\"endpoints\":[{\"url\":\"https:\\\/\\\/a.nel.cloudflare.com\\\/report\\\/v3?s=%2FnHX6XkKvdrz%2Bcw6sIat0ThObEy4xbCm7lUQ352wIxGsTUw7LraUlSRNlKm6M%2BWkSmPkb3g21sj0tuNdaGaDoTSUC4qFiO0EjtsshKszLTq61w7WaXqnHSpO1hc%3D\"}],\"group\":\"cf-nel\",\"max_age\":604800}\n1 < NEL: {\"success_fraction\":0,\"report_to\":\"cf-nel\",\"max_age\":604800}\n1 < Vary: Accept-Encoding\n1 < Server: cloudflare\n1 < CF-RAY: 6f8cf2f46ce73308-EWR\n1 < alt-svc: h3=\":443\"; ma=86400, h3-29=\":443\"; ma=86400\n{\"page\":2,\"per_page\":6,\"total\":12,\"total_pages\":2,\"data\":[{\"id\":7,\"email\":\"michael.lawson@reqres.in\",\"first_name\":\"Michael\",\"last_name\":\"Lawson\",\"avatar\":\"https:\/\/reqres.in\/img\/faces\/7-image.jpg\"},{\"id\":8,\"email\":\"lindsay.ferguson@reqres.in\",\"first_name\":\"Lindsay\",\"last_name\":\"Ferguson\",\"avatar\":\"https:\/\/reqres.in\/img\/faces\/8-image.jpg\"},{\"id\":9,\"email\":\"tobias.funke@reqres.in\",\"first_name\":\"Tobias\",\"last_name\":\"Funke\",\"avatar\":\"https:\/\/reqres.in\/img\/faces\/9-image.jpg\"},{\"id\":10,\"email\":\"byron.fields@reqres.in\",\"first_name\":\"Byron\",\"last_name\":\"Fields\",\"avatar\":\"https:\/\/reqres.in\/img\/faces\/10-image.jpg\"},{\"id\":11,\"email\":\"george.edwards@reqres.in\",\"first_name\":\"George\",\"last_name\":\"Edwards\",\"avatar\":\"https:\/\/reqres.in\/img\/faces\/11-image.jpg\"},{\"id\":12,\"email\":\"rachel.howell@reqres.in\",\"first_name\":\"Rachel\",\"last_name\":\"Howell\",\"avatar\":\"https:\/\/reqres.in\/img\/faces\/12-image.jpg\"}],\"support\":{\"url\":\"https:\/\/reqres.in\/#support-heading\",\"text\":\"To keep ReqRes free, contributions towards server costs are appreciated!\"}}\n\n"},{"result":{"nanos":9300,"millis":0.0093,"status":"passed"},"step":{"line":50,"prefix":"Then","index":3,"text":"status 200"}},{"result":{"nanos":5383500,"millis":5.3835,"status":"passed"},"step":{"line":51,"prefix":"And","index":4,"text":"response.data[1].first_name=='Lindsay'"}},{"result":{"nanos":481300,"millis":0.4813,"status":"passed"},"step":{"line":52,"prefix":"And","index":5,"text":"assert response.data[1].id==8"}}],"executorName":"main","line":46,"name":"Get list of users","description":"","durationMillis":147.3641,"startTime":1649441314504,"failed":false,"refId":"[4:46]","endTime":1649441314653,"exampleIndex":-1}],"callDepth":0,"name":"First Karate Test","description":"","resultDate":"2022-04-08 02:08:34 PM","durationMillis":630.4115,"passedCount":4}